<?xml version="1.0" encoding="UTF-8" standalone="no"?>
<svg
   xmlns:svg="http://www.w3.org/2000/svg"
   xmlns="http://www.w3.org/2000/svg"
   xmlns:xlink="http://www.w3.org/1999/xlink"
   version="1.1"
   width="485"
   height="49"
   viewBox="0 0 485 49"
   style="fill:#6e6d72;font-family:'Helvetica Neue LT Std'"
   id="svg2">
  <path
     d="m 11.726,14.114 c -7.581,0 -11.708,5.997 -11.708,13.099 0,7.101 4.127,13.0991 11.708,13.0991 7.581,0 11.708,-5.9981 11.708,-13.0991 0,-7.102 -4.127,-13.099 -11.708,-13.099 z m 0,2.543 c 5.806,0 8.685,5.278 8.685,10.556 0,5.278 -2.879,10.556 -8.685,10.556 -5.806,0 -8.685,-5.278 -8.685,-10.556 0,-5.278 2.879,-10.556 8.685,-10.556 z"
     id="path4" />
  <path
     d="m 47.792,27.213 c 0,5.134 -2.352,10.556 -8.11,10.556 -6.429,0 -8.684,-5.422 -8.684,-10.556 0,-5.614 2.015,-10.556 8.684,-10.556 5.758,0 8.11,5.422 8.11,10.556 z M 27.975,48.757 h 3.023 V 34.89 h 0.096 c 1.295,3.5508 4.894,5.4221 8.588,5.4221 7.534,0 11.132,-6.0941 11.132,-13.0991 0,-7.006 -3.598,-13.099 -11.132,-13.099 -3.982,0 -7.437,2.063 -8.828,5.422 h -0.096 v -4.703 h -2.783 z"
     id="path6" />
  <path
     d="m 76.352,28.029 c 0.24,-6.958 -2.927,-13.915 -10.892,-13.915 -7.87,0 -11.18,6.573 -11.18,13.099 0,7.053 3.31,13.0991 11.18,13.0991 6.237,0 9.5,-3.2628 10.796,-8.8771 h -3.023 c -0.96,3.743 -3.359,6.334 -7.773,6.334 -5.806,0 -8.109,-5.326 -8.157,-9.74 z M 57.303,25.485 c 0.479,-4.51 3.214,-8.828 8.157,-8.828 4.894,0 7.725,4.27 7.869,8.828 z"
     id="path8" />
  <path
     d="m 80.408,39.5924 h 3.023 V 25.15 c 0.096,-4.847 2.975,-8.493 7.773,-8.493 4.894,0 6.286,3.215 6.286,7.485 v 15.4504 h 3.022 V 23.662 c 0,-5.902 -2.111,-9.548 -9.068,-9.548 -3.503,0 -6.814,2.015 -7.917,4.99 h -0.096 v -4.271 h -3.023 z"
     id="path10" />
  <path
     d="m 105.964,39.5883 h 6.97 V 14.732 h -6.97 z m 6.97,-34.3273 h -6.97 v 5.625 h 6.97 z"
     id="path12" />
  <path
     d="m 117.525,39.6148 h 6.819 V 26.584 c 0,-5.049 1.585,-7.116 5.283,-7.116 3.17,0 4.371,2.019 4.371,6.106 v 14.0408 h 6.819 V 24.324 c 0,-6.155 -1.825,-10.242 -9.077,-10.242 -2.881,0 -5.859,1.347 -7.588,4.135 h -0.144 v -3.462 h -6.483 z"
     id="path14" />
  <path
     d="m 167.618,14.646 h -6.813 l -5.267,16.987 h -0.096 l -5.267,-16.987 h -7.199 l 8.552,24.8783 h 7.634 z"
     id="path16" />
  <path
     d="m 193.244,28.833 c 0.483,-7.64 -3.622,-14.751 -12.123,-14.751 -7.583,0 -12.751,5.67 -12.751,13.118 0,7.687 4.878,13.0688 12.751,13.0688 5.651,0 9.756,-2.4985 11.688,-8.3608 h -6.037 c -0.435,1.538 -2.656,3.22 -5.409,3.22 -3.816,0 -5.941,-1.97 -6.134,-6.295 z m -18.016,-4.324 c 0.097,-1.922 1.353,-5.286 5.7,-5.286 3.332,0 4.83,1.826 5.458,5.286 z"
     id="path18" />
  <use
     transform="translate(79)"
     xlink:href="#path14"
     id="use20" />
  <path
     d="m 233.013,7.223 h -6.944 v 7.449 h -4.205 v 4.565 h 4.205 v 14.657 c 0,4.9495 3.717,5.9106 7.971,5.9106 1.369,0 2.885,-0.048 4.059,-0.2403 V 34.23 c -0.734,0.144 -1.418,0.192 -2.152,0.192 -2.347,0 -2.934,-0.576 -2.934,-2.883 V 19.237 h 5.086 v -4.565 h -5.086 z"
     id="path22" />
  <path
     d="m 240.628,39.5243 h 6.906 V 14.715 h -6.906 z M 247.534,5.261 h -6.906 v 5.615 h 6.906 z"
     id="path24" />
  <path
     d="m 251.468,27.2 c 0,7.88 5.047,13.0688 12.835,13.0688 7.836,0 12.884,-5.1888 12.884,-13.0688 0,-7.928 -5.048,-13.118 -12.884,-13.118 -7.788,0 -12.835,5.19 -12.835,13.118 z m 6.826,0 c 0,-3.988 1.394,-7.977 6.009,-7.977 4.663,0 6.057,3.989 6.057,7.977 0,3.94 -1.394,7.928 -6.057,7.928 -4.615,0 -6.009,-3.988 -6.009,-7.928 z"
     id="path26" />
  <use
     xlink:href="#path14"
     transform="translate(163.343)"
     id="use28" />
  <g
     style="fill:#f68121;font-family:Dutch801W07-It"
     id="g44">
    <path
       d="m 306.623,39.6052 5.154,-17.8669 c 0.227,-0.7691 0.392,-1.4397 0.497,-2.0121 0.122,-0.5902 0.183,-1.0552 0.183,-1.395 0,-0.6438 -0.235,-1.0999 -0.706,-1.3682 -0.454,-0.2861 -1.066,-0.4292 -2.2,-0.4292 h -0.445 l 0.224,-0.7924 c 2.76,-0.2838 5.548,-0.8042 7.862,-1.4464 0.466,-0.1248 0.738,-0.1872 0.816,-0.1872 0.093,0 0.155,0.0356 0.186,0.107 0.047,0.0713 0.07,0.214 0.07,0.4281 -0.016,0.0535 -0.039,0.1605 -0.07,0.321 -0.031,0.1427 -0.093,0.3835 -0.186,0.7224 l -2.656,9.7655 c 2.283,-3.6208 4.777,-6.1664 7.196,-8.0819 2.419,-1.9332 4.936,-3.0918 6.782,-3.0918 1.021,0 1.809,0.2572 2.365,0.7716 0.556,0.5143 0.833,1.2503 0.833,2.2081 0,0.603 -0.071,1.2947 -0.215,2.0751 -0.125,0.7627 -0.313,1.5785 -0.564,2.4476 l -3.145,10.6948 c -0.269,0.9045 -0.457,1.5874 -0.565,2.0485 -0.089,0.4434 -0.134,0.807 -0.134,1.0908 0,0.4079 0.098,0.7271 0.296,0.9577 0.197,0.2128 0.483,0.3193 0.86,0.3193 0.555,0 1.174,-0.3725 1.854,-1.1174 0.699,-0.7627 1.506,-1.9332 2.42,-3.5117 l 0.887,0.6385 c -1.362,2.5185 -2.715,4.3896 -4.059,5.6134 -1.344,1.206 -2.724,1.8091 -4.14,1.8091 -0.86,0 -1.541,-0.2572 -2.043,-0.7715 -0.484,-0.5321 -0.725,-1.2593 -0.725,-2.1816 0,-0.4079 0.062,-0.9311 0.188,-1.5696 0.125,-0.6385 0.322,-1.4189 0.591,-2.3412 l 2.876,-10.4819 c 0.251,-0.9933 0.43,-1.7736 0.538,-2.3412 0.107,-0.5853 0.161,-1.0553 0.161,-1.41 0,-0.5853 -0.116,-1.011 -0.349,-1.277 -0.233,-0.266 -0.592,-0.3991 -1.075,-0.3991 -0.897,0 -2.034,0.541 -3.414,1.6229 -1.362,1.0819 -2.832,2.6072 -4.409,4.5759 -1.541,1.9332 -2.722,4.097 -3.816,6.4914 -1.093,2.3766 -2.141,5.4981 -3.145,9.3646 z"
       id="path30" />
    <path
       d="m 342.437,26.8833 c 3.545,-0.4749 6.231,-1.539 8.26,-3.1922 2.048,-1.6533 3.071,-3.632 3.071,-5.936 0,-0.6859 -0.176,-1.2136 -0.529,-1.5829 -0.335,-0.387 -0.619,-0.5804 -1.249,-0.5804 -1.709,0 -3.481,1.0553 -5.316,3.1658 -1.835,2.1106 -3.247,4.8191 -4.237,8.1257 z m 12.892,6.3053 0.836,0.7995 c -1.763,2.0977 -3.599,3.6452 -5.506,4.6425 -1.89,0.98 -3.968,1.4701 -6.236,1.4701 -2.375,0 -4.156,-0.7475 -5.48,-2.2425 -1.324,-1.495 -1.986,-3.5909 -1.986,-6.2261 0,-2.0245 0.434,-4.0576 1.302,-6.0994 0.867,-2.0419 2.099,-3.9712 3.695,-5.6989 1.666,-1.7627 3.341,-3.187 5.249,-4.1817 1.909,-0.9948 3.844,-1.402 5.579,-1.402 1.596,0 3.14,0.216 4.004,0.9196 0.865,0.7035 1.425,1.6002 1.425,2.9436 0,2.487 -1.423,4.6563 -4.27,6.508 -2.846,1.8335 -6.751,3.0861 -11.715,3.7578 -0.143,0.7625 -0.247,1.16 -0.318,1.7756 -0.053,0.6155 -0.079,1.1256 -0.079,1.5301 0,1.9523 0.414,3.4121 1.244,4.3794 0.847,0.9674 2.124,1.5089 3.833,1.5089 1.296,0 2.664,-0.3696 4.104,-1.109 1.439,-0.7565 2.879,-1.8484 4.319,-3.2755 z"
       id="path32" />
    <path
       d="m 362.254,16.6603 0.253,-1.0479 c 1.762,-0.2405 3.51,-0.944 5.031,-2.1551 1.52,-1.211 2.942,-3.00035 4.357,-5.18699 l 1.092,-0.04523 -1.659,6.55222 h 7.05 l -0.648,1.9056 h -7.05 l -4.168,16.543 c -0.161,0.5921 -0.285,1.1215 -0.375,1.588 -0.089,0.4665 -0.133,0.8343 -0.133,1.1035 0,0.3589 0.089,0.646 0.267,0.8613 0.196,0.2153 0.437,0.323 0.723,0.323 0.481,0 1.07,-0.323 1.766,-0.969 0.696,-0.6459 1.534,-1.6508 2.515,-3.0145 l 0.83,0.9421 c -1.481,2.0993 -2.865,3.5559 -4.218,4.5554 -1.336,0.9996 -2.664,1.4674 -3.977,1.4674 -0.87,0 -1.527,-0.2277 -1.97,-0.683 -0.426,-0.4553 -0.639,-1.1383 -0.639,-2.0489 0,-0.4028 0.035,-0.8318 0.106,-1.2871 0.071,-0.4729 0.187,-0.9632 0.346,-1.471 l 4.487,-17.9328 z"
       id="path34" />
    <path
       d="m 380.828,40.6559 -0.526,-15.6203 c -0.052,-3.7567 -0.104,-6.0099 -0.668,-6.9516 -0.564,-0.9554 -1.629,-1.4011 -3.068,-1.4011 l 1.812,-1.9056 h 5.822 c 0.378,0 -0.189,0.491 0.027,2.5042 0.233,1.9951 0.537,4.6361 0.591,8.6264 l 0.108,6.5517 11.593,-18.5497 h 0.944 l 2.049,20.2752 3.909,-4.6913 c 1.762,-2.139 3.11,-4.0083 4.045,-5.608 0.952,-1.5998 1.429,-2.822 1.429,-3.6668 0,-0.2696 -0.36,-0.7729 -1.079,-1.5099 -0.719,-0.7549 -1.078,-1.5188 -1.078,-2.2917 0,-0.737 0.215,-1.3301 0.647,-1.7795 0.449,-0.4494 1.024,-0.6741 1.725,-0.6741 0.737,0 1.34,0.3326 1.807,0.9976 0.485,0.6651 0.728,1.5099 0.728,2.5344 0,1.5279 -0.539,3.3163 -1.618,5.3654 -1.06,2.0311 -2.786,4.5386 -5.177,7.5223 l -8.223,10.2724 h -0.89 l -1.968,-18.8462 -11.944,18.8462 z"
       id="path36" />
    <path
       d="m 410.557,31.3395 q 0,-2.6986 1.154,-5.4496 1.155,-2.7509 3.356,-5.2399 2.711,-3.0654 5.933,-4.7422 3.221,-1.703 6.362,-1.703 4.188,0 6.685,2.4104 2.496,2.3842 2.496,6.3928 0,2.5675 -1.127,5.3185 -1.128,2.751 -3.195,5.2138 -2.684,3.1439 -6.013,4.8731 -3.302,1.7292 -6.685,1.7292 -4.053,0 -6.523,-2.4104 -2.443,-2.4104 -2.443,-6.3927 z M 427.04,15.6196 q -2.04,0 -4.134,1.5196 -2.067,1.4934 -3.839,4.2706 -1.665,2.6462 -2.658,5.7377 -0.966,3.0654 -0.966,5.6854 0,2.7247 1.208,4.2443 1.235,1.4934 3.463,1.4934 1.772,0 3.57,-1.0742 1.826,-1.1004 3.302,-3.0654 2.121,-2.7771 3.41,-6.3927 1.315,-3.6418 1.315,-6.6285 0,-2.8296 -1.208,-4.2968 -1.181,-1.4934 -3.463,-1.4934 z"
       id="path38" />
    <path
       d="m 438.116,39.4807 4.607,-16.5461 c 0.264,-0.9354 0.432,-2.0217 0.575,-2.718 0.142,-0.6962 0.213,-1.2183 0.213,-1.5665 0,-0.7136 -0.231,-1.2096 -0.694,-1.4881 -0.463,-0.2785 -1.399,-0.4439 -2.806,-0.4961 l 0.161,-1.0182 c 1.959,-0.2785 3.874,-0.417 5.675,-0.7877 l 2.726,-0.5824 c 0.247,0 0.397,0.0353 0.45,0.1059 0.071,0.053 0.106,0.1765 0.106,0.3707 0,0.0706 -0.017,0.1764 -0.053,0.3176 -0.017,0.1412 -0.053,0.3001 -0.106,0.4766 l -2.726,9.7688 c 2.118,-3.6534 3.738,-6.128 5.309,-7.9885 1.571,-1.8605 3.159,-3.0732 4.22,-3.0732 0.708,0 1.309,0.105 1.713,0.5864 0.405,0.4628 0.562,1.2465 0.562,2.0796 0,0.9997 -0.278,1.7967 -0.834,2.4774 -0.556,0.6628 -1.049,0.9716 -1.841,0.9716 -0.607,0 -1.024,-0.2935 -1.483,-0.6994 -0.442,-0.4059 -0.772,-0.4766 -0.863,-1.1439 -2.38,2.3354 -4.345,5.0189 -6.121,8.5482 -1.775,3.5294 -3.258,7.6645 -4.448,12.4053 z"
       id="path40" />
    <path
       d="m 455.448,39.663 9.433,-33.19747 c 0.107,-0.40303 0.178,-0.72721 0.213,-0.97253 0.054,-0.26285 0.08,-0.48188 0.08,-0.65712 0,-0.64835 -0.186,-1.08643 -0.559,-1.31423 -0.373,-0.24532 -1.137,-0.36798 -2.292,-0.36798 h -0.773 l 0.347,-0.99882 c 2.327,-0.29789 4.725,-0.727209 7.195,-1.287948 0.657,-0.157708 1.039,-0.236562 1.145,-0.236562 0.196,0 0.338,0.043808 0.427,0.131423 0.089,0.087616 0.133,0.245324 0.133,0.473124 0,0.140185 -0.062,0.411793 -0.186,0.814823 -0.018,0.07009 -0.036,0.12266 -0.054,0.15771 l -7.096,24.93128 8.96,-6.8482 c 0.861,-0.6868 1.712,-1.2819 2.232,-1.9131 0.52,-0.6311 0.78,-1.1138 0.78,-1.4479 0,-0.3899 -0.206,-0.6776 -0.619,-0.8633 -0.412,-0.1856 -1.076,-0.297 -1.991,-0.3341 l 0.404,-0.9746 h 11.032 l -0.238,1.0412 h -0.162 c -0.96,0 -2.023,0.2928 -3.264,0.8782 -1.242,0.5665 -2.51,1.3786 -3.805,2.4362 l -6.655,4.9734 4.182,9.7467 c 0.486,1.0741 0.927,1.7671 1.322,2.3215 0.414,0.5323 0.791,0.8554 1.313,0.8554 0.594,0 1.259,-0.3659 1.997,-1.0978 0.737,-0.7541 1.529,-1.4792 2.374,-2.6414 l 0.809,0.8716 c -1.259,1.9018 -2.581,3.3986 -3.966,4.4904 -1.367,1.0918 -2.599,1.6377 -3.696,1.6377 -0.9,0 -1.673,-0.361 -2.321,-1.083 -0.629,-0.722 -1.43,-2.2364 -2.401,-4.5432 l -3.201,-7.7168 -3.529,2.5002 -3.091,10.2352 z"
       id="path42" />
  </g>
</svg>
